[
  {
    "isActive": false,
    "myCart": [],
    "wishList": [],
    "fullName": "Asadbek Xalimjonov",
    "username": "admin",
    "password": "1111",
    "balance": 0.0,
    "role": "SUPER_ADMIN",
    "lastRound": 0,
    "currentRound": 0,
    "isVerified": false,
    "cancelPressed": false,
    "id": "c9618d9e-2bb3-487f-a0e8-8827167c1653",
    "createdAt": {
      "date": {
        "year": 2021,
        "month": 12,
        "day": 13
      },
      "time": {
        "hour": 21,
        "minute": 16,
        "second": 33,
        "nano": 430000000
      }
    },
    "updatedAt": {
      "date": {
        "year": 2021,
        "month": 12,
        "day": 13
      },
      "time": {
        "hour": 21,
        "minute": 17,
        "second": 33,
        "nano": 431000000
      }
    }
  },
  {
    "isActive": true,
    "myCart": [],
    "wishList": [],
    "fullName": "Choriyev Eldor",
    "username": "eldor",
    "password": "2222",
    "balance": 15000.0,
    "role": "CUSTOMER",
    "lastRound": 0,
    "currentRound": 0,
    "isVerified": false,
    "cancelPressed": false,
    "id": "dabbd90f-14db-4c45-8d2d-b74655cec554",
    "createdAt": {
      "date": {
        "year": 2021,
        "month": 12,
        "day": 13
      },
      "time": {
        "hour": 21,
        "minute": 17,
        "second": 33,
        "nano": 431000000
      }
    },
    "updatedAt": {
      "date": {
        "year": 2021,
        "month": 12,
        "day": 13
      },
      "time": {
        "hour": 21,
        "minute": 17,
        "second": 33,
        "nano": 431000000
      }
    }
  },
  {
    "isActive": true,
    "myCart": [],
    "wishList": [],
    "fullName": "Ali",
    "username": "a",
    "password": "a",
    "balance": 5.0045E7,
    "role": "CUSTOMER",
    "lastRound": 0,
    "currentRound": 0,
    "isVerified": false,
    "cancelPressed": false,
    "id": "8a4b4c1d-3fc7-4321-956a-4680c384e328",
    "createdAt": {
      "date": {
        "year": 2021,
        "month": 12,
        "day": 13
      },
      "time": {
        "hour": 22,
        "minute": 5,
        "second": 26,
        "nano": 985000000
      }
    },
    "updatedAt": {
      "date": {
        "year": 2021,
        "month": 12,
        "day": 13
      },
      "time": {
        "hour": 22,
        "minute": 5,
        "second": 26,
        "nano": 985000000
      }
    }
  },
  {
    "isActive": true,
    "myCart": [
      {
        "cloth": {
          "name": "Cap",
          "color": {
            "name": "BLACK",
            "id": "4d2a4de5-077e-47ed-a4bd-460334485297",
            "createdAt": {
              "date": {
                "year": 2021,
                "month": 12,
                "day": 6
              },
              "time": {
                "hour": 15,
                "minute": 9,
                "second": 44,
                "nano": 96000000
              }
            },
            "updatedAt": {
              "date": {
                "year": 2021,
                "month": 12,
                "day": 6
              },
              "time": {
                "hour": 15,
                "minute": 9,
                "second": 44,
                "nano": 96000000
              }
            }
          },
          "size": "S",
          "price": 12000.0,
          "discount": 10.0,
          "id": "5f8f4a89-7ce6-4338-86c9-350cfc0bb15a",
          "createdAt": {
            "date": {
              "year": 2021,
              "month": 12,
              "day": 9
            },
            "time": {
              "hour": 15,
              "minute": 27,
              "second": 43,
              "nano": 767000000
            }
          },
          "updatedAt": {
            "date": {
              "year": 2021,
              "month": 12,
              "day": 9
            },
            "time": {
              "hour": 15,
              "minute": 27,
              "second": 43,
              "nano": 768000000
            }
          }
        },
        "quantity": 2,
        "id": "84622334-40b9-4375-8379-b58e8e1c1ab1",
        "createdAt": {
          "date": {
            "year": 2021,
            "month": 12,
            "day": 14
          },
          "time": {
            "hour": 0,
            "minute": 22,
            "second": 32,
            "nano": 87000000
          }
        },
        "updatedAt": {
          "date": {
            "year": 2021,
            "month": 12,
            "day": 14
          },
          "time": {
            "hour": 0,
            "minute": 22,
            "second": 32,
            "nano": 87000000
          }
        }
      }
    ],
    "wishList": [],
    "fullName": "Abrorjon",
    "username": "c",
    "password": "c",
    "balance": 50000.0,
    "role": "CUSTOMER",
    "lastRound": 0,
    "currentRound": 0,
    "isVerified": false,
    "cancelPressed": false,
    "id": "6f8f3c64-2eb4-4973-b4f6-1a1ff691465b",
    "createdAt": {
      "date": {
        "year": 2021,
        "month": 12,
        "day": 14
      },
      "time": {
        "hour": 0,
        "minute": 1,
        "second": 1,
        "nano": 855000000
      }
    },
    "updatedAt": {
      "date": {
        "year": 2021,
        "month": 12,
        "day": 14
      },
      "time": {
        "hour": 0,
        "minute": 1,
        "second": 1,
        "nano": 855000000
      }
    }
  },
  {
    "isActive": true,
    "myCart": [
      {
        "cloth": {
          "name": "Cap",
          "color": {
            "name": "BLACK",
            "id": "4d2a4de5-077e-47ed-a4bd-460334485297",
            "createdAt": {
              "date": {
                "year": 2021,
                "month": 12,
                "day": 6
              },
              "time": {
                "hour": 15,
                "minute": 9,
                "second": 44,
                "nano": 96000000
              }
            },
            "updatedAt": {
              "date": {
                "year": 2021,
                "month": 12,
                "day": 6
              },
              "time": {
                "hour": 15,
                "minute": 9,
                "second": 44,
                "nano": 96000000
              }
            }
          },
          "size": "S",
          "price": 12000.0,
          "discount": 10.0,
          "id": "5f8f4a89-7ce6-4338-86c9-350cfc0bb15a",
          "createdAt": {
            "date": {
              "year": 2021,
              "month": 12,
              "day": 9
            },
            "time": {
              "hour": 15,
              "minute": 27,
              "second": 43,
              "nano": 767000000
            }
          },
          "updatedAt": {
            "date": {
              "year": 2021,
              "month": 12,
              "day": 9
            },
            "time": {
              "hour": 15,
              "minute": 27,
              "second": 43,
              "nano": 768000000
            }
          }
        },
        "quantity": 1,
        "id": "0a82fc17-4cbc-4be0-ae84-15453e874810",
        "createdAt": {
          "date": {
            "year": 2021,
            "month": 12,
            "day": 25
          },
          "time": {
            "hour": 16,
            "minute": 28,
            "second": 29,
            "nano": 1000000
          }
        },
        "updatedAt": {
          "date": {
            "year": 2021,
            "month": 12,
            "day": 25
          },
          "time": {
            "hour": 16,
            "minute": 28,
            "second": 29,
            "nano": 1000000
          }
        }
      },
      {
        "cloth": {
          "name": "T-Shirt",
          "color": {
            "name": "BLACK",
            "id": "4d2a4de5-077e-47ed-a4bd-460334485297",
            "createdAt": {
              "date": {
                "year": 2021,
                "month": 12,
                "day": 6
              },
              "time": {
                "hour": 15,
                "minute": 9,
                "second": 44,
                "nano": 96000000
              }
            },
            "updatedAt": {
              "date": {
                "year": 2021,
                "month": 12,
                "day": 6
              },
              "time": {
                "hour": 15,
                "minute": 9,
                "second": 44,
                "nano": 96000000
              }
            }
          },
          "size": "S",
          "price": 6000.0,
          "discount": 10.0,
          "id": "d30c0deb-34ff-4552-ac47-f4cdc888042f",
          "createdAt": {
            "date": {
              "year": 2021,
              "month": 12,
              "day": 6
            },
            "time": {
              "hour": 19,
              "minute": 23,
              "second": 7,
              "nano": 121000000
            }
          },
          "updatedAt": {
            "date": {
              "year": 2021,
              "month": 12,
              "day": 6
            },
            "time": {
              "hour": 19,
              "minute": 23,
              "second": 7,
              "nano": 121000000
            }
          }
        },
        "quantity": 1,
        "id": "95ab71b6-94fc-4651-b56e-211af8afcae7",
        "createdAt": {
          "date": {
            "year": 2021,
            "month": 12,
            "day": 25
          },
          "time": {
            "hour": 16,
            "minute": 29,
            "second": 29,
            "nano": 703000000
          }
        },
        "updatedAt": {
          "date": {
            "year": 2021,
            "month": 12,
            "day": 25
          },
          "time": {
            "hour": 16,
            "minute": 29,
            "second": 29,
            "nano": 703000000
          }
        }
      }
    ],
    "wishList": [],
    "fullName": "Abror Ergashev",
    "balance": 0.0,
    "role": "CUSTOMER",
    "lastRound": 2,
    "currentRound": 5,
    "userId": 325450627,
    "verifyCode": "4871",
    "isVerified": true,
    "cancelPressed": false,
    "id": "46011e7b-5053-4279-bd38-5be9f84b2a66",
    "createdAt": {
      "date": {
        "year": 2021,
        "month": 12,
        "day": 25
      },
      "time": {
        "hour": 16,
        "minute": 28,
        "second": 1,
        "nano": 829000000
      }
    },
    "updatedAt": {
      "date": {
        "year": 2021,
        "month": 12,
        "day": 25
      },
      "time": {
        "hour": 16,
        "minute": 28,
        "second": 1,
        "nano": 829000000
      }
    }
  },
  {
    "isActive": true,
    "myCart": [
      {
        "cloth": {
          "name": "Shirt",
          "color": {
            "name": "BLACK",
            "id": "4d2a4de5-077e-47ed-a4bd-460334485297",
            "createdAt": {
              "date": {
                "year": 2021,
                "month": 12,
                "day": 6
              },
              "time": {
                "hour": 15,
                "minute": 9,
                "second": 44,
                "nano": 96000000
              }
            },
            "updatedAt": {
              "date": {
                "year": 2021,
                "month": 12,
                "day": 6
              },
              "time": {
                "hour": 15,
                "minute": 9,
                "second": 44,
                "nano": 96000000
              }
            }
          },
          "size": "M",
          "price": 5000.0,
          "discount": 10.0,
          "id": "d48e5d23-284f-4610-8554-5645ae1e8824",
          "createdAt": {
            "date": {
              "year": 2021,
              "month": 12,
              "day": 21
            },
            "time": {
              "hour": 11,
              "minute": 12,
              "second": 57,
              "nano": 120000000
            }
          },
          "updatedAt": {
            "date": {
              "year": 2021,
              "month": 12,
              "day": 21
            },
            "time": {
              "hour": 11,
              "minute": 12,
              "second": 57,
              "nano": 120000000
            }
          }
        },
        "quantity": 1,
        "id": "60373de3-7da4-4466-9fcf-2e20697f9de2",
        "createdAt": {
          "date": {
            "year": 2021,
            "month": 12,
            "day": 26
          },
          "time": {
            "hour": 18,
            "minute": 34,
            "second": 50,
            "nano": 459000000
          }
        },
        "updatedAt": {
          "date": {
            "year": 2021,
            "month": 12,
            "day": 26
          },
          "time": {
            "hour": 18,
            "minute": 34,
            "second": 50,
            "nano": 459000000
          }
        }
      }
    ],
    "wishList": [],
    "fullName": "Asadbek Xalimjonov",
    "balance": 0.0,
    "role": "CUSTOMER",
    "lastRound": 2,
    "currentRound": 5,
    "userId": 710525012,
    "verifyCode": "8918",
    "isVerified": true,
    "cancelPressed": false,
    "id": "fe30208b-8c01-4071-aa4c-d8f49d7ba4a8",
    "createdAt": {
      "date": {
        "year": 2021,
        "month": 12,
        "day": 26
      },
      "time": {
        "hour": 18,
        "minute": 34,
        "second": 30,
        "nano": 196000000
      }
    },
    "updatedAt": {
      "date": {
        "year": 2021,
        "month": 12,
        "day": 26
      },
      "time": {
        "hour": 18,
        "minute": 34,
        "second": 30,
        "nano": 196000000
      }
    }
  }
]